<svg viewBox="0 0 400 512" width="400" height="512">
  <g transform="translate(-640 -340)">
    <path
      d="m735.26 423.4c-3.8836 0-7.0527 3.1691-7.0527 7.0527 0 3.8836 3.1691 7.0527 7.0527 7.0527s7.0527-3.1691 7.0527-7.0527c0-3.8836-3.1691-7.0527-7.0527-7.0527zm0 2c2.8027 0 5.0527 2.25 5.0527 5.0527 0 2.8027-2.25 5.0527-5.0527 5.0527s-5.0527-2.25-5.0527-5.0527c0-2.8027 2.25-5.0527 5.0527-5.0527z"
      fill="lime" stroke="none" />
    <path
      d="m698.82 433.7c-4.4781 1.6672-8.9453 3.2685-13.463 5.1836-.0843.0232-.17318.0239-.25782.002 1.1956 3.4135 1.206 2.877 1.6849 3.2884 3.7076-.61438 8.486-2.2558 12.119-3.0361z"
      fill="white" stroke="none" />
    <path
      d="m723.15 433.22-14.795 7.4434c6.8676-1.7683 13.552-3.8352 20.025-6.1582-.17692-.32043-.33921-.65116-.47266-.9961a.5.5 0 01-.0684.0586z"
      fill="white" stroke="none" />
    <path
      d="m698.67 429.49c-4.9699 1.6748-9.938 3.3216-14.83 4.8379.285 1.3606.61842 2.6272.98828 3.7695a.5.5 0 01.13672-.13867c4.6441-1.9687 9.224-3.6153 13.816-5.3223z"
      fill="white" stroke="none" />
    <path
      d="m747.18 419.63c-2.4803 1.131-5.0564 2.2699-7.1641 3.3828a.50005.50005 0 01-.58203-.0859l-3.377-3.2949c-4.1759 1.6976-8.3689 3.4957-12.51 5.0117a.50005.50005 0 01.0391.15039c-.0813 1.0608-.14819 2.1726-.53125 3.2285-.3821 1.0534-1.1104 2.0368-2.4023 2.7402-6.3096 3.9495-11.192 5.6553-16.537 8.1582a.50005.50005 0 01-.59961-.13867l-3.6836-4.5234.15234 4.3086a.5.5 0 01.27539 0l3.293 3.2676c.15398-.0362.30712-.0748.46094-.11132l18.805-9.459a.50005.50005 0 01.26172-.0508l4.6289.3418c-.15931-.62941-.38672-1.2357-.38672-1.9141 0-4.4192 3.5926-8.0117 8.0117-8.0117 3.1374-1e-5 5.7929 1.8563 7.1074 4.4883.50818-1.6696 2.086-4.2415 4.7383-7.4883z"
      fill="white" stroke="none" />
    <path
      d="m698.23 417.02c-4.5999 1.7415-6.602 4.6616-6.4629 6.6484.0729 1.0408.63394 1.8544 1.7812 2.3066 1.096.43207 2.7956.44179 4.9883-.21094z"
      fill="white" stroke="none" />
    <path
      d="m715.31 413.16c-4.0268.0683-9.1838 1.0599-16.096 3.4746l.30859 8.7852c8.2935-3.3812 16.627-6.7964 24.373-10.707-1.0563-.40817-2.1271-.80333-3.3613-1.0625a.5.5 0 01-.0332.006.5.5 0 01-.0312-.0117c-1.5312-.31712-3.2033-.51758-5.1602-.48438z"
      fill="white" stroke="none" />
    <path
      d="m697.98 409.77c-.5603.0662-1.1667.11424-1.7344.17774a.5.5 0 01-.10742.21484s-1.454 1.6042-3.625 3.2812c-2.1553 1.665-5.0253 3.4287-8.002 3.7715-1.7759 5.9666-1.7064 11.559-.87891 16.139 4.9486-1.5346 9.9744-3.1975 15.002-4.8945l-.0586-1.6856c-2.2159.6186-4.0599.66128-5.3906.13672-1.4485-.57102-2.3147-1.777-2.4121-3.168-.19038-2.7191 2.3082-5.9783 7.4219-7.7949z"
      fill="white" stroke="none" />
    <path
      d="m765.34 408.63c-.98436.53681-1.8984 1.0936-2.9531 1.6113-.50004 1.1151-1.554 2.1232-3.0195 3.1309-1.5656 1.0765-3.5644 2.1471-5.7617 3.2207-1.4185.69305-2.8672 1.3769-4.3848 2.0703-3.7718 4.2358-5.4298 7.2128-5.9219 8.9551-.11343.40161-.16269.71848-.18946.99805 8.6185-3.8417 16.701-8.182 24.152-12.922-.78217-1.584-1.5293-3.9652-1.9219-7.0645z"
      fill="white" stroke="none" />
    <path
      d="m757.76 405.98c-17.555 8.3375-37.921 16.356-58.105 23.195l.10352 2.9473 3.043-1.0293c18.824-6.8338 37.46-12.81 56.953-23.688-.0888-.0364-.18468.007-.27148-.0371-.59353-.30316-1.1606-.78159-1.7168-1.3789-.002-.003-.004-.008-.006-.01z"
      fill="white" stroke="none" />
    <path
      d="m723.51 405.39c-7.3069 1.7331-15.451 3.1708-24.531 4.2754l.20703 5.9434c5.4874-1.8949 9.7472-2.7512 13.395-3.0938a.5.5 0 00-.002-.002.5.5 0 01.30859-.63477l7.916-2.748c.55938-1.436 1.4212-2.7107 2.707-3.7402z"
      fill="white" stroke="none" />
    <path
      d="m755.8 403.01-30.082 11.658a.50005.50005 0 01-.23828.40625c-8.2092 4.2302-17.125 7.8232-25.916 11.408l.0566 1.6465c20.012-6.7922 40.184-14.743 57.582-22.998-.49191-.61235-.94204-1.3664-1.4024-2.1211z"
      fill="white" stroke="none" />
    <path
      d="m774.36 402.93c-2.4349 1.8049-5.1357 3.5382-8.0938 5.2031.35027 3.1505 1.0954 5.4805 1.8496 7.0293 2.5559-1.6475 5.0241-3.3478 7.418-5.0898-.0345-.085-.067-.1425-.10156-.23437-.51423-1.3685-.9676-3.6582-1.0723-6.9082z"
      fill="white" stroke="none" />
    <path
      d="m697.69 401.47c-3.2558 2.0271-6.4677 4.4119-9.5859 7.5449-.16461.27438-.30964.54832-.46484.82227 3.5889-.30412 6.9743-.67866 10.307-1.0723z"
      fill="white" stroke="none" />
    <path
      d="m753.63 398.79-32.15 11.162c-.26045.85429-.39793 1.7834-.42383 2.7852 1.3746.30332 2.5764.74719 3.7402 1.2226l30.445-11.797c-.18573-.33275-.41075-.54323-.58789-.88868-.41882-.81671-.66851-1.6419-1.0234-2.4844z"
      fill="white" stroke="none" />
    <path
      d="m752.32 395.52c-7.1675 3.3946-15.448 6.3985-25.107 8.9141-2.643.96446-4.2424 2.4287-5.1797 4.2676l31.211-10.836c-.284-.72893-.67814-1.4798-.89258-2.166-.0222-.0725-.009-.10799-.0312-.17969z"
      fill="white" stroke="none" />
    <path
      d="m714.87 393.88c-3.6499 3.6383-9.3623 8.455-16.092 10.178l.16211 4.5996c5.5749-.67832 10.788-1.4834 15.662-2.4062 1.5032-5.283.98131-9.6277.4668-12.363-.0664-.001-.13283-.006-.19922-.008z"
      fill="lime" stroke="none" />
    <path
      d="m712.29 393.79c-4.5478 2.3252-9.1272 4.3974-13.629 7.0938l.0742 2.1387c5.9671-1.5988 11.137-5.7743 14.684-9.1894-.37667-.0175-.75183-.0185-1.1289-.043z"
      fill="lime" stroke="none" />
    <path
      d="m785.31 393.39c-3.0524 2.9892-6.3299 5.9226-10.02 8.75.0314 3.6539.55544 5.9616 1.0645 7.3242 4.1762-3.0827 8.0878-6.3056 11.711-9.6523-1.0981-1.6259-2.3523-3.9003-2.7559-6.4219z"
      fill="white" stroke="none" />
    <path
      d="m724.92 393.34c-2.932.37782-5.8754.57662-8.8301.56445.48402 2.5934.92873 6.8454-.44726 12.127 3.8712-.75401 7.5397-1.5784 11.01-2.4727.0239-.46387-.0211-1.3221-.19922-2.5039-.19993-1.3265-.50077-2.9105-.81054-4.4297-.34992-1.7161-.4732-2.1888-.72266-3.2852z"
      fill="lime" stroke="none" />
    <path
      d="m781.81 388.97c-7.439 4.9653-15.138 10.003-23.09 16.506.42519.42365.84874.80315 1.2227.99414.43556.22249.79059.26849 1.1152.17969 2.0464-1.1634 4.0807-2.2602 6.1484-3.5449l.002-.002c13.998-9.646 13.088-11.428 14.602-14.133z"
      fill="white" stroke="none" />
    <path
      d="m746.5 387.49c-6.8141 2.7311-13.668 4.741-20.582 5.7305.25007 1.1.36446 1.5328.70703 3.2129.31176 1.5289.61403 3.1247.81836 4.4805.15682 1.0402.17593 1.7272.16993 2.3887 7.927-2.0932 14.877-4.5288 21.047-7.2383.17181-.6735.0916-1.7874-.20703-3.0547-.30383-1.2892-.8005-2.7277-1.3262-4.0664-.21958-.55915-.40909-.94648-.62696-1.4531z"
      fill="lime" stroke="none" />
    <path
      d="m793.02 385.9c-2.2802 2.2283-4.6172 4.4458-6.8848 6.6875.21089 2.478 1.5188 4.8453 2.6738 6.543 2.1128-1.9831 4.1289-4.0035 6.0312-6.0684-.11386-.14076-.22701-.29045-.33789-.50586-.47911-.93075-.99814-3.0327-1.4824-6.6562z"
      fill="white" stroke="none" />
    <path
      d="m801.79 373.98c-1.0196.89031-2.0509 1.748-3.084 2.5898a.50005.50005 0 01.13672.16211l.57422 2.8535a.50005.50005 0 01-.16602.48047c-1.9159 1.6278-3.6082 3.3258-5.3516 5.0078.51041 4.1439 1.0881 6.2461 1.4883 7.0234.0552.10718.0882.1381.13281.20313 3.1214-3.4519 5.9488-7.0074 8.4375-10.658a.5.5 0 01-.14844-.0879s-.47946-1.9331-1.0215-4c-.27101-1.0334-.55792-2.1004-.80664-2.9727-.0847-.29714-.11581-.35585-.19141-.60156z"
      fill="white" stroke="none" />
    <path
      d="m805.38 364.04c-10.85 10.801-23.568 19.495-33.379 25.939-5.0546 3.3201-9.3315 6.0576-12.145 8.1797-1.4065 1.061-2.4475 1.9744-3.0156 2.6836-.28407.35458-.4441.65648-.4961.86133s-.0323.28826.0547.4082a.50005.50005 0 01.01.0274c.55602.9447 1.1107 1.8627 1.6894 2.5605 15.569-12.729 30.078-20.062 43.361-31.748-.008-.0196-.037-.12127-.043-.13477a.5.5 0 01.24609-.66211.5.5 0 01.51758.19141c.78315-.70126 1.6087-1.2634 2.3828-2 1.3951-2.8685 1.2908-4.6806.81641-6.3066z"
      fill="white" stroke="none" />
    <path
      d="m806.32 363.77c.52137 1.8434.6402 3.9983-.88477 7.0918a.50005.50005 0 01-.10351.14063c-.88625.84507-1.8256 1.4882-2.7227 2.2871.10662.33304.19366.54601.32813 1.0176.25214.88429.54046 1.9568.8125 2.9942.45424 1.7322.73231 2.8566.85547 3.3496 3.2754-4.9452 5.9561-10.049 7.9492-15.283-1.7675-.2256-3.712-.60275-6.2344-1.5977z"
      fill="white" stroke="none" />
    <path
      d="m807.25 350.86c-19.889 13.467-39.68 27.982-59.824 36.254.21966.51103.4114.89906.63281 1.4629.53651 1.3662 1.046 2.8401 1.3672 4.2031.25781 1.0938.2542 2.0161.1621 2.8887 20.701-8.184 40.177-29.036 58.344-43.428z"
      fill="lime" stroke="none" />
    <path
      d="m816.49 349.04c-3.514 2.5332-6.8737 6.2238-9.9219 13.76 2.609 1.0486 4.5211 1.4007 6.3359 1.6133 1.8294-5.0248 3.0649-10.157 3.5859-15.373z"
      fill="white" stroke="none" />
    <path
      d="m816.77 344.52c-2.8974 1.8809-5.7901 3.8184-8.6816 5.7715l.91602 1.8594a.50005.50005 0 01-.14453.61914c-18.457 14.026-30.9 30.308-55.617 42.277.0427.14696.0155.20109.0625.35156.53264 1.7045 1.3218 3.6384 2.2344 5.418.0318.062.0714.0947.10352.15625.12549-.25126.21173-.50235.41797-.75977.6736-.8408 1.7576-1.7743 3.1934-2.8574 2.8716-2.1663 7.1503-4.9005 12.199-8.2168 10.084-6.6232 23.228-15.56 34.182-26.707 3.2921-8.1412 7.0806-11.997 10.936-14.641.0857-1.0881.17384-2.1771.19922-3.2715z"
      fill="white" stroke="none" />
    <circle cx="735.26" cy="430.45" r="4" fill="white" stroke="none" />

  </g>
</svg>
